<?xml version="1.0" encoding="utf-8"?>
<!-- Generator: Adobe Illustrator 16.0.0, SVG Export Plug-In . SVG Version: 6.00 Build 0)  -->
<!DOCTYPE svg PUBLIC "-//W3C//DTD SVG 1.1//EN" "http://www.w3.org/Graphics/SVG/1.1/DTD/svg11.dtd">
<svg version="1.1" id="Layer_1" xmlns="http://www.w3.org/2000/svg" xmlns:xlink="http://www.w3.org/1999/xlink" x="0px" y="0px"
	 width="278px" height="279px" viewBox="0 0 278 279" enable-background="new 0 0 278 279" xml:space="preserve">
<g>
	<rect x="0" fill="#CB0000" width="278" height="279"/>
</g>
<g id="T">
	<path fill="#FFFFFF" d="M139.013,246.316l30.016-168.805c28.609,0,37.634,3.137,38.937,15.942c0,0,19.192-7.156,28.872-21.689
		c-37.773-17.503-75.728-18.293-75.728-18.293l-22.146,26.974l0.05-0.003l-22.146-26.976c0,0-37.955,0.79-75.723,18.294
		C50.814,86.294,70.014,93.45,70.014,93.45c1.311-12.806,10.324-15.943,38.741-15.963L139.013,246.316"/>
	<path fill="#FFFFFF" d="M139,45.679c30.536-0.233,65.483,4.724,101.263,20.317c4.782-8.606,6.012-12.411,6.012-12.411
		c-39.112-15.474-75.739-20.769-107.277-20.902c-31.54,0.133-68.165,5.429-107.271,20.902c0,0,1.745,4.686,6.007,12.411
		c35.772-15.593,70.729-20.551,101.264-20.317H139"/>
</g>
</svg>
